…
```
## The following objects are masked from 'package:base':
## 
##     intersect, setdiff, setequal, union
```

```r
actiDataDay<- group_by(actiData,date)
results <-summarise(actiDataDay, meanS = mean(steps, na.rm = TRUE), medianS = median(steps, na.rm = TRUE) )
print(results, n = 20)
```

```
## # A tibble: 61 × 3
##          date    meanS medianS
##        <date>    <dbl>   <dbl>
## 1  2012-10-01      NaN      NA
## 2  2012-10-02  0.43750       0
## 3  2012-10-03 39.41667       0
## 4  2012-10-04 42.06944       0
## 5  2012-10-05 46.15972       0
## 6  2012-10-06 53.54167       0
## 7  2012-10-07 38.24653       0
## 8  2012-10-08      NaN      NA
## 9  2012-10-09 44.48264       0
## 10 2012-10-10 34.37500       0
## 11 2012-10-11 35.77778       0
## 12 2012-10-12 60.35417       0
## 13 2012-10-13 43.14583       0
## 14 2012-10-14 52.42361       0
## 15 2012-10-15 35.20486       0
## 16 2012-10-16 52.37500       0
## 17 2012-10-17 46.70833       0
## 18 2012-10-18 34.91667       0
## 19 2012-10-19 41.07292       0
## 20 2012-10-20 36.09375       0
## # ... with 41 more rows
```
…
